INDEX VERSION 1.126+/home/phillip/workspace/.metadata/.plugins/org.eclipse.jdt.core
1022003584.index
3829351191.index
1989682271.index
1737441395.index
609826867.index
1514218975.index
1714592054.index
1198206356.index
1791498496.index
2409005450.index
664202523.index
4267884898.index
3925161478.index
1928036885.index
